egovframework\com\cmm\ImagePaginationRenderer.class
egovframework\let\cop\com\service\TemplateInf.class
egovframework\com\cmm\SessionVO.class
egovframework\let\uss\olp\qqm\service\QustnrQestnManageVO.class
egovframework\let\sec\rgm\service\AuthorGroup.class
egovframework\let\cop\com\service\impl\EgovUserInfManageDAO.class
egovframework\let\uss\olp\qim\web\EgovQustnrItemManageController.class
egovframework\let\uss\umt\service\impl\MberManageDAO.class
egovframework\let\sec\gmt\service\impl\GroupManageDAO.class
egovframework\com\cmm\service\EgovCmmUseService.class
egovframework\let\uss\olh\faq\web\EgovFaqManageController.class
egovframework\let\sec\ram\service\EgovAuthorRoleManageService.class
egovframework\com\cmm\service\impl\EgovComAbstractDAO.class
egovframework\let\uss\olh\qna\service\impl\EgovQnaManageServiceImpl.class
egovframework\let\uss\umt\service\impl\EgovMberManageServiceImpl.class
egovframework\let\sec\ram\service\EgovAuthorManageService.class
egovframework\let\cop\bbs\service\impl\BBSAttributeManageDAO.class
egovframework\let\uss\olp\qmc\service\impl\QustnrManageDao.class
egovframework\let\sec\rgm\web\EgovAuthorGroupController.class
egovframework\com\cmm\service\impl\FileManageDAO.class
egovframework\let\sym\ccm\zip\service\Zip.class
egovframework\let\uss\olh\faq\service\EgovFaqManageService.class
egovframework\let\uss\sam\ipm\service\IndvdlInfoPolicy.class
egovframework\let\cop\bbs\service\impl\EgovBBSManageServiceImpl.class
egovframework\com\cmm\LoginVO.class
egovframework\let\uss\olh\qna\service\QnaManageDefaultVO.class
egovframework\let\uss\umt\service\EgovMberManageService.class
egovframework\let\cop\bbs\service\BoardVO.class
egovframework\let\uss\olp\qri\service\EgovQustnrRespondInfoService.class
egovframework\let\uss\olp\qrm\web\EgovQustnrRespondManageController.class
egovframework\let\cop\com\web\EgovTemplateManageController.class
egovframework\let\uss\olp\qri\service\QustnrRespondInfoVO.class
egovframework\com\cmm\service\impl\EgovFileMngServiceImpl.class
egovframework\let\uss\olp\qim\service\EgovQustnrItemManageService.class
egovframework\com\cmm\service\FileVO.class
egovframework\let\cop\com\service\EgovBBSUseInfoManageService.class
egovframework\let\uss\olp\qtm\service\impl\EgovQustnrTmplatManageServiceImpl.class
egovframework\let\uss\ion\bnr\service\EgovBannerService.class
egovframework\let\sym\mnu\mpm\service\MenuManageVO.class
egovframework\let\uat\uia\service\impl\LoginDAO.class
egovframework\let\cop\com\service\BoardUseInfVO.class
egovframework\let\cop\bbs\service\EgovBBSLoneMasterService.class
egovframework\let\cop\com\service\TemplateInfVO.class
egovframework\let\cop\com\service\impl\EgovBBSUseInfoManageServiceImpl.class
egovframework\let\sec\ram\service\AuthorRoleManageVO.class
egovframework\let\cop\bbs\service\impl\EgovBBSLoneMasterServiceImpl.class
egovframework\com\cmm\EgovMessageSource.class
egovframework\let\sym\cal\service\impl\RestdeManageDAO.class
egovframework\let\uss\olh\qna\web\EgovQnaManageController.class
egovframework\let\uss\olh\faq\service\FaqManageVO.class
egovframework\let\sym\mnu\mpm\service\MenuManage.class
egovframework\let\uss\olp\qqm\service\EgovQustnrQestnManageService.class
egovframework\let\sym\cal\service\EgovCalRestdeManageService.class
egovframework\let\cop\bbs\service\impl\BBSManageDAO.class
egovframework\let\uat\uia\service\EgovLoginService.class
egovframework\let\uss\olh\faq\service\FaqManageDefaultVO.class
egovframework\let\uss\olp\qqm\service\impl\QustnrQestnManageDao.class
egovframework\let\sec\ram\service\AuthorManage.class
egovframework\let\uss\umt\web\EgovMberManageController.class
egovframework\let\sec\rmt\service\RoleManage.class
egovframework\let\cop\com\web\EgovBBSUseInfoManageController.class
egovframework\let\sym\cal\service\Restde.class
egovframework\let\uss\olp\qmc\service\QustnrManageVO.class
egovframework\let\sym\cal\service\RestdeVO.class
egovframework\let\sec\ram\web\EgovAuthorRoleController.class
egovframework\let\sym\cal\web\EgovCalRestdeManageController.class
egovframework\let\uss\ion\bnr\service\impl\EgovBannerServiceImpl.class
egovframework\com\cmm\ComDefaultCodeVO.class
egovframework\let\uss\umt\service\StplatVO.class
egovframework\com\cmm\EgovComExcepHndlr.class
egovframework\let\sec\rmt\service\RoleManageVO.class
egovframework\com\cmm\service\EgovUserDetailsService.class
egovframework\let\sec\ram\web\EgovAuthorManageController.class
egovframework\let\uss\olp\qrm\service\impl\QustnrRespondManageDao.class
egovframework\com\cmm\EgovComTraceHandler.class
egovframework\let\cop\com\service\UserInfVO.class
egovframework\let\cop\com\service\impl\TemplateManageDAO.class
egovframework\let\cop\com\service\BoardUseInf.class
egovframework\let\cop\com\service\impl\EgovTemplateManageServiceImpl.class
egovframework\let\sec\rgm\service\impl\AuthorGroupDAO.class
egovframework\let\sec\rmt\service\EgovRoleManageService.class
egovframework\let\sec\ram\service\AuthorRoleManage.class
egovframework\let\uss\olp\qtm\web\EgovQustnrTmplatManageController.class
egovframework\let\uss\olp\qmc\web\EgovQustnrManageController.class
egovframework\let\uss\sam\stp\service\impl\EgovStplatManageServiceImpl.class
egovframework\let\uss\ion\bnr\service\Banner.class
egovframework\let\sec\rmt\service\impl\EgovRoleManageServiceImpl.class
egovframework\let\uss\ion\bnr\web\EgovBannerController.class
egovframework\com\cmm\EgovComCrossSiteHndlr.class
egovframework\let\uat\uia\service\impl\EgovSessionMapping.class
egovframework\let\uss\sam\stp\service\StplatManageVO.class
egovframework\let\sym\mnu\mpm\service\impl\MenuManageDAO.class
egovframework\com\cmm\service\impl\CmmUseDAO.class
egovframework\let\uss\olh\qna\service\EgovQnaManageService.class
egovframework\let\cop\bbs\web\EgovBBSLoneMasterController.class
egovframework\com\cmm\filter\HTMLTagFilterRequestWrapper.class
egovframework\let\uss\olp\qmc\service\EgovQustnrManageService.class
egovframework\let\uat\uia\web\EgovLoginController.class
egovframework\let\sec\rmt\service\impl\RoleManageDAO.class
egovframework\let\uss\ion\bnr\service\BannerVO.class
egovframework\let\sym\ccm\zip\service\impl\EgovCcmZipManageServiceImpl.class
egovframework\let\uss\olp\qri\web\EgovQustnrRespondInfoController.class
egovframework\com\cmm\service\EgovFileMngUtil.class
egovframework\let\cop\bbs\service\BoardMaster.class
egovframework\let\uss\olp\qrm\service\EgovQustnrRespondManageService.class
egovframework\let\uss\sam\stp\service\StplatManageDefaultVO.class
egovframework\com\cmm\web\EgovComUtlController.class
egovframework\let\sec\ram\service\impl\AuthorManageDAO.class
egovframework\let\uss\sam\ipm\web\EgovIndvdlInfoPolicyController.class
egovframework\let\cop\bbs\service\impl\BBSLoneMasterDAO.class
egovframework\let\cop\bbs\service\impl\BBSAddedOptionsDAO.class
egovframework\com\cmm\service\impl\EgovCmmUseServiceImpl.class
egovframework\let\sec\gmt\service\EgovGroupManageService.class
egovframework\let\sec\gmt\service\GroupManageVO.class
egovframework\let\utl\sim\service\EgovFileScrty.class
egovframework\let\uss\ion\bnr\service\impl\BannerDAO.class
egovframework\let\utl\fcc\service\EgovNumberUtil.class
egovframework\let\uss\olp\qtm\service\EgovQustnrTmplatManageService.class
egovframework\let\sec\rgm\service\impl\EgovAuthorGroupServiceImpl.class
egovframework\let\uss\umt\service\MberManageVO.class
egovframework\let\uss\olp\qri\service\impl\EgovQustnrRespondInfoServiceImpl.class
egovframework\let\sec\gmt\web\EgovGroupManageController.class
egovframework\let\uat\uia\web\RequestWrapperForSecurity.class
egovframework\com\cmm\web\EgovFileDownloadController.class
egovframework\let\sec\ram\service\impl\AuthorRoleManageDAO.class
egovframework\let\sym\ccm\zip\service\EgovCcmZipManageService.class
egovframework\let\uss\olp\qtm\service\impl\QustnrTmplatManageDao.class
egovframework\let\sec\gmt\service\impl\EgovGroupManageServiceImpl.class
egovframework\let\uss\sam\ipm\service\impl\IndvdlInfoPolicyDao.class
egovframework\let\uss\olp\qrm\service\QustnrRespondManageVO.class
egovframework\let\uss\olp\qri\service\impl\QustnrRespondInfoDao.class
egovframework\let\sec\ram\service\AuthorManageVO.class
egovframework\let\sec\ram\service\impl\EgovAuthorManageServiceImpl.class
egovframework\let\cop\com\service\EgovTemplateManageService.class
egovframework\let\sec\rgm\service\EgovAuthorGroupService.class
egovframework\let\sym\ccm\zip\service\ZipVO.class
egovframework\let\cop\bbs\web\EgovBBSAttributeManageController.class
egovframework\let\cop\bbs\service\Board.class
egovframework\com\cmm\service\impl\EgovTestUserDetailsServiceImpl.class
egovframework\let\uss\sam\stp\service\EgovStplatManageService.class
egovframework\com\cmm\service\CmmnDetailCode.class
egovframework\let\utl\fcc\service\EgovDateUtil.class
egovframework\let\sym\ccm\zip\web\EgovCcmZipManageController.class
egovframework\let\uss\umt\service\UserDefaultVO.class
egovframework\let\sec\ram\service\impl\EgovAuthorRoleManageServiceImpl.class
egovframework\let\sec\rmt\web\EgovRoleManageController.class
egovframework\com\cmm\interceptor\AuthenticInterceptor.class
egovframework\let\uss\olp\qtm\service\QustnrTmplatManageVO.class
egovframework\let\cop\bbs\service\impl\EgovBBSAttributeManageServiceImpl.class
egovframework\let\sec\gmt\service\GroupManage.class
egovframework\let\uss\olp\qqm\service\impl\EgovQustnrQestnManageServiceImpl.class
egovframework\let\sym\mnu\mpm\service\impl\EgovMenuManageServiceImpl.class
egovframework\let\uss\sam\ipm\service\EgovIndvdlInfoPolicyService.class
egovframework\let\utl\fcc\service\EgovStringUtil.class
egovframework\let\cop\com\service\impl\EgovUserInfManageServiceImpl.class
egovframework\let\uat\uia\service\impl\EgovLoginServiceImpl.class
egovframework\let\cop\bbs\web\EgovBBSManageController.class
egovframework\let\uss\sam\ipm\service\impl\EgovIndvdlInfoPolicyServiceImpl.class
egovframework\let\sec\rgm\service\AuthorGroupVO.class
egovframework\com\cmm\web\EgovFileMngController.class
egovframework\let\uss\olh\faq\service\impl\EgovFaqManageServiceImpl.class
egovframework\let\uss\olp\qim\service\impl\EgovQustnrItemManageServiceImpl.class
egovframework\let\uss\olh\faq\service\impl\FaqManageDAO.class
egovframework\let\main\web\EgovMainController.class
egovframework\com\cmm\ComDefaultVO.class
egovframework\let\cop\bbs\service\BoardMasterVO.class
egovframework\com\cmm\service\EgovProperties.class
egovframework\com\cmm\filter\HTMLTagFilter.class
egovframework\let\uss\olh\qna\service\impl\QnaManageDAO.class
egovframework\let\cop\com\service\impl\BBSUseInfoManageDAO.class
egovframework\let\uss\olp\qqm\web\EgovQustnrQestnManageController.class
egovframework\com\cmm\service\impl\EgovUserDetailsSessionServiceImpl.class
egovframework\com\cmm\IncludedCompInfoVO.class
egovframework\com\cmm\web\EgovMultipartResolver.class
egovframework\let\uss\sam\stp\service\impl\StplatManageDAO.class
egovframework\let\sym\mnu\mpm\service\EgovMenuManageService.class
egovframework\let\sym\ccm\zip\service\impl\ZipManageDAO.class
egovframework\let\uss\sam\stp\web\EgovStplatManageController.class
egovframework\let\uss\olp\qmc\service\impl\EgovQustnrManageServiceImpl.class
egovframework\let\main\service\EgovMainContentsVO.class
egovframework\let\cop\bbs\service\EgovBBSManageService.class
egovframework\com\cmm\AltibaseClobStringTypeHandler.class
egovframework\com\cmm\web\EgovImageProcessController.class
egovframework\let\uss\olp\qrm\service\impl\EgovQustnrRespondManageServiceImpl.class
egovframework\com\cmm\service\EgovFileMngService.class
egovframework\let\uss\olp\qim\service\QustnrItemManageVO.class
egovframework\com\cmm\EgovComOthersExcepHndlr.class
egovframework\let\cop\com\service\EgovUserInfManageService.class
egovframework\com\cmm\service\Globals.class
egovframework\com\cmm\web\EgovBindingInitializer.class
egovframework\let\uss\olp\qim\service\impl\QustnrItemManageDao.class
egovframework\let\sym\cal\service\impl\EgovCalRestdeManageServiceImpl.class
egovframework\let\uss\olh\qna\service\QnaManageVO.class
egovframework\let\cop\bbs\service\EgovBBSAttributeManageService.class
